{"count":75,"next":"https://demo.netbox.dev/api/ipam/ip-addresses/?limit=50&offset=50","previous":null,"results":[{"address":"1.2.3.4/32","assigned_object":{"_occupied":false,"cable":null,"device":{"display":"ABC-DEF-DCN-ASW-001","id":107,"name":"ABC-DEF-DCN-ASW-001","url":"https://demo.netbox.dev/api/dcim/devices/107/"},"display":"Loopback0","id":1631,"name":"Loopback0","url":"https://demo.netbox.dev/api/dcim/interfaces/1631/"},"assigned_object_id":1631,"assigned_object_type":"dcim.interface","comments":"","created":"2024-01-11T16:04:43.402207Z","custom_fields":{},"description":"","display":"1.2.3.4/32","dns_name":"","family":{"label":"IPv4","value":4},"id":259,"last_updated":"2024-01-11T16:04:43.402258Z","nat_inside":null,"nat_outside":[],"role":null,"status":{"label":"Active","value":"active"},"tags":[],"tenant":null,"url":"https://demo.netbox.dev/api/ipam/ip-addresses/259/","vrf":null},{"address":"8.8.8.8/32","assigned_object":{"_occupied":false,"cable":null,"device":{"display":"GRE_INTR1","id":113,"name":"GRE_INTR1","url":"https://demo.netbox.dev/api/dcim/devices/113/"},"display":"Tunnel5-ext","id":1705,"name":"Tunnel5-ext","url":"https://demo.netbox.dev/api/dcim/interfaces/1705/"},"assigned_object_id":1705,"assigned_object_type":"dcim.interface","comments":"","created":"2024-01-11T16:17:21.099319Z","custom_fields":{},"description":"","display":"8.8.8.8/32","dns_name":"","family":{"label":"IPv4","value":4},"id":265,"last_updated":"2024-01-11T16:17:21.099415Z","nat_inside":null,"nat_outside":[],"role":null,"status":{"label":"Active","value":"active"},"tags":[],"tenant":null,"url":"https://demo.netbox.dev/api/ipam/ip-addresses/265/","vrf":null},{"address":"10.1.1.25/24","assigned_object":null,"assigned_object_id":null,"assigned_object_type":null,"comments":"","created":"2024-01-11T21:46:59.409738Z","custom_fields":{},"description":"","display":"10.1.1.25/24","dns_name":"","family":{"label":"IPv4","value":4},"id":276,"last_updated":"2024-01-11T21:46:59.409783Z","nat_inside":null,"nat_outside":[],"role":null,"status":{"label":"Active","value":"active"},"tags":[],"tenant":null,"url":"https://demo.netbox.dev/api/ipam/ip-addresses/276/","vrf":null},{"address":"10.11.65.34/24","assigned_object":null,"assigned_object_id":null,"assigned_object_type":null,"comments":"","created":"2024-01-11T12:58:46.283205Z","custom_fields":{},"description":"","display":"10.11.65.34/24","dns_name":"","family":{"label":"IPv4","value":4},"id":209,"last_updated":"2024-01-11T12:58:46.283255Z","nat_inside":null,"nat_outside":[],"role":null,"status":{"label":"Active","value":"active"},"tags":[],"tenant":null,"url":"https://demo.netbox.dev/api/ipam/ip-addresses/209/","vrf":null},{"address":"10.11.74.21/24","assigned_object":null,"assigned_object_id":null,"assigned_object_type":null,"comments":"","created":"2024-01-11T12:58:46.676663Z","custom_fields":{},"description":"","display":"10.11.74.21/24","dns_name":"","family":{"label":"IPv4","value":4},"id":216,"last_updated":"2024-01-11T12:58:46.676710Z","nat_inside":null,"nat_outside":[],"role":null,"status":{"label":"Reserved","value":"reserved"},"tags":[],"tenant":null,"url":"https://demo.netbox.dev/api/ipam/ip-addresses/216/","vrf":null},{"address":"10.11.77.45/24","assigned_object":null,"assigned_object_id":null,"assigned_object_type":null,"comments":"","created":"2024-01-11T12:58:48.182574Z","custom_fields":{},"description":"","display":"10.11.77.45/24","dns_name":"","family":{"label":"IPv4","value":4},"id":242,"last_updated":"2024-01-11T12:58:48.182614Z","nat_inside":null,"nat_outside":[],"role":null,"status":{"label":"Reserved","value":"reserved"},"tags":[],"tenant":null,"url":"https://demo.netbox.dev/api/ipam/ip-addresses/242/","vrf":null},{"address":"10.11.82.55/24","assigned_object":null,"assigned_object_id":null,"assigned_object_type":null,"comments":"","created":"2024-01-11T12:58:48.704907Z","custom_fields":{},"description":"","display":"10.11.82.55/24","dns_name":"","family":{"label":"IPv4","value":4},"id":252,"last_updated":"2024-01-11T12:58:48.704971Z","nat_inside":null,"nat_outside":[],"role":null,"status":{"label":"Reserved","value":"reserved"},"tags":[],"tenant":null,"url":"https://demo.netbox.dev/api/ipam/ip-addresses/252/","vrf":null},{"address":"10.11.85.29/24","assigned_object":null,"assigned_object_id":null,"assigned_object_type":null,"comments":"","created":"2024-01-11T12:58:47.010684Z","custom_fields":{},"description":"","display":"10.11.85.29/24","dns_name":"","family":{"label":"IPv4","value":4},"id":222,"last_updated":"2024-01-11T12:58:47.010736Z","nat_inside":null,"nat_outside":[],"role":null,"status":{"label":"Reserved","value":"reserved"},"tags":[],"tenant":null,"url":"https://demo.netbox.dev/api/ipam/ip-addresses/222/","vrf":null},{"address":"10.11.92.200/24","assigned_object":null,"assigned_object_id":null,"assigned_object_type":null,"comments":"","created":"2024-01-11T12:58:45.856385Z","custom_fields":{},"description":"","display":"10.11.92.200/24","dns_name":"","family":{"label":"IPv4","value":4},"id":202,"last_updated":"2024-01-11T12:58:45.856422Z","nat_inside":null,"nat_outside":[],"role":null,"status":{"label":"Reserved","value":"reserved"},"tags":[],"tenant":null,"url":"https://demo.netbox.dev/api/ipam/ip-addresses/202/","vrf":null},{"address":"10.11.96.84/24","assigned_object":null,"assigned_object_id":null,"assigned_object_type":null,"comments":"","created":"2024-01-11T12:58:47.596542Z","custom_fields":{},"description":"","display":"10.11.96.84/24","dns_name":"","family":{"label":"IPv4","value":4},"id":232,"last_updated":"2024-01-11T12:58:47.596595Z","nat_inside":null,"nat_outside":[],"role":null,"status":{"label":"Reserved","value":"reserved"},"tags":[],"tenant":null,"url":"https://demo.netbox.dev/api/ipam/ip-addresses/232/","vrf":null},{"address":"10.12.16.89/24","assigned_object":null,"assigned_object_id":null,"assigned_object_type":null,"comments":"","created":"2024-01-11T12:58:46.726986Z","custom_fields":{},"description":"","display":"10.12.16.89/24","dns_name":"","family":{"label":"IPv4","value":4},"id":217,"last_updated":"2024-01-11T12:58:46.727021Z","nat_inside":null,"nat_outside":[],"role":null,"status":{"label":"Active","value":"active"},"tags":[],"tenant":null,"url":"https://demo.netbox.dev/api/ipam/ip-addresses/217/","vrf":null},{"address":"10.12.20.46/24","assigned_object":null,"assigned_object_id":null,"assigned_object_type":null,"comments":"","created":"2024-01-11T12:58:48.239618Z","custom_fields":{},"description":"","display":"10.12.20.46/24","dns_name":"","family":{"label":"IPv4","value":4},"id":243,"last_updated":"2024-01-11T12:58:48.239664Z","nat_inside":null,"nat_outside":[],"role":null,"status":{"label":"Active","value":"active"},"tags":[],"tenant":null,"url":"https://demo.netbox.dev/api/ipam/ip-addresses/243/","vrf":null},{"address":"10.12.31.56/24","assigned_object":null,"assigned_object_id":null,"assigned_object_type":null,"comments":"","created":"2024-01-11T12:58:48.757551Z","custom_fields":{},"description":"","display":"10.12.31.56/24","dns_name":"","family":{"label":"IPv4","value":4},"id":253,"last_updated":"2024-01-11T12:58:48.757604Z","nat_inside":null,"nat_outside":[],"role":null,"status":{"label":"Active","value":"active"},"tags":[],"tenant":null,"url":"https://demo.netbox.dev/api/ipam/ip-addresses/253/","vrf":null},{"address":"10.12.38.95/24","assigned_object":null,"assigned_object_id":null,"assigned_object_type":null,"comments":"","created":"2024-01-11T12:58:47.661525Z","custom_fields":{},"description":"","display":"10.12.38.95/24","dns_name":"","family":{"label":"IPv4","value":4},"id":233,"last_updated":"2024-01-11T12:58:47.661571Z","nat_inside":null,"nat_outside":[],"role":null,"status":{"label":"Active","value":"active"},"tags":[],"tenant":null,"url":"https://demo.netbox.dev/api/ipam/ip-addresses/233/","vrf":null},{"address":"10.12.44.110/24","assigned_object":null,"assigned_object_id":null,"assigned_object_type":null,"comments":"","created":"2024-01-11T12:58:47.065498Z","custom_fields":{},"description":"","display":"10.12.44.110/24","dns_name":"","family":{"label":"IPv4","value":4},"id":223,"last_updated":"2024-01-11T12:58:47.065566Z","nat_inside":null,"nat_outside":[],"role":null,"status":{"label":"Active","value":"active"},"tags":[],"tenant":null,"url":"https://demo.netbox.dev/api/ipam/ip-addresses/223/","vrf":null},{"address":"10.12.67.34/24","assigned_object":null,"assigned_object_id":null,"assigned_object_type":null,"comments":"","created":"2024-01-11T12:58:45.655999Z","custom_fields":{},"description":"","display":"10.12.67.34/24","dns_name":"","family":{"label":"IPv4","value":4},"id":199,"last_updated":"2024-01-11T12:58:45.656032Z","nat_inside":null,"nat_outside":[],"role":null,"status":{"label":"Active","value":"active"},"tags":[],"tenant":null,"url":"https://demo.netbox.dev/api/ipam/ip-addresses/199/","vrf":null},{"address":"10.12.81.90/24","assigned_object":null,"assigned_object_id":null,"assigned_object_type":null,"comments":"","created":"2024-01-11T12:58:46.403916Z","custom_fields":{},"description":"","display":"10.12.81.90/24","dns_name":"","family":{"label":"IPv4","value":4},"id":211,"last_updated":"2024-01-11T12:58:46.403961Z","nat_inside":null,"nat_outside":[],"role":null,"status":{"label":"Active","value":"active"},"tags":[],"tenant":null,"url":"https://demo.netbox.dev/api/ipam/ip-addresses/211/","vrf":null},{"address":"10.13.86.50/24","assigned_object":null,"assigned_object_id":null,"assigned_object_type":null,"comments":"","created":"2024-01-11T12:58:48.446475Z","custom_fields":{},"description":"","display":"10.13.86.50/24","dns_name":"","family":{"label":"IPv4","value":4},"id":247,"last_updated":"2024-01-11T12:58:48.446519Z","nat_inside":null,"nat_outside":[],"role":null,"status":{"label":"Active","value":"active"},"tags":[],"tenant":null,"url":"https://demo.netbox.dev/api/ipam/ip-addresses/247/","vrf":null},{"address":"10.13.88.36/24","assigned_object":null,"assigned_object_id":null,"assigned_object_type":null,"comments":"","created":"2024-01-11T12:58:47.294164Z","custom_fields":{},"description":"","display":"10.13.88.36/24","dns_name":"","family":{"label":"IPv4","value":4},"id":227,"last_updated":"2024-01-11T12:58:47.294215Z","nat_inside":null,"nat_outside":[],"role":null,"status":{"label":"Active","value":"active"},"tags":[],"tenant":null,"url":"https://demo.netbox.dev/api/ipam/ip-addresses/227/","vrf":null},{"address":"10.13.91.40/24","assigned_object":null,"assigned_object_id":null,"assigned_object_type":null,"comments":"","created":"2024-01-11T12:58:47.912350Z","custom_fields":{},"description":"","display":"10.13.91.40/24","dns_name":"","family":{"label":"IPv4","value":4},"id":237,"last_updated":"2024-01-11T12:58:47.912393Z","nat_inside":null,"nat_outside":[],"role":null,"status":{"label":"Active","value":"active"},"tags":[],"tenant":null,"url":"https://demo.netbox.dev/api/ipam/ip-addresses/237/","vrf":null},{"address":"10.13.93.60/24","assigned_object":null,"assigned_object_id":null,"assigned_object_type":null,"comments":"","created":"2024-01-11T12:58:48.961921Z","custom_fields":{},"description":"","display":"10.13.93.60/24","dns_name":"","family":{"label":"IPv4","value":4},"id":257,"last_updated":"2024-01-11T12:58:48.961961Z","nat_inside":null,"nat_outside":[],"role":null,"status":{"label":"Active","value":"active"},"tags":[],"tenant":null,"url":"https://demo.netbox.dev/api/ipam/ip-addresses/257/","vrf":null},{"address":"10.13.99.211/24","assigned_object":null,"assigned_object_id":null,"assigned_object_type":null,"comments":"","created":"2024-01-11T12:58:45.985211Z","custom_fields":{},"description":"","display":"10.13.99.211/24","dns_name":"","family":{"label":"IPv4","value":4},"id":204,"last_updated":"2024-01-11T12:58:45.985264Z","nat_inside":null,"nat_outside":[],"role":null,"status":{"label":"Reserved","value":"reserved"},"tags":[],"tenant":null,"url":"https://demo.netbox.dev/api/ipam/ip-addresses/204/","vrf":null},{"address":"10.31.47.103/24","assigned_object":null,"assigned_object_id":null,"assigned_object_type":null,"comments":"","created":"2024-01-11T12:58:45.524974Z","custom_fields":{},"description":"","display":"10.31.47.103/24","dns_name":"","family":{"label":"IPv4","value":4},"id":197,"last_updated":"2024-01-11T12:58:45.525041Z","nat_inside":null,"nat_outside":[],"role":null,"status":{"label":"Active","value":"active"},"tags":[],"tenant":null,"url":"https://demo.netbox.dev/api/ipam/ip-addresses/197/","vrf":null},{"address":"10.31.51.73/24","assigned_object":null,"assigned_object_id":null,"assigned_object_type":null,"comments":"","created":"2024-01-11T12:58:47.529428Z","custom_fields":{},"description":"","display":"10.31.51.73/24","dns_name":"","family":{"label":"IPv4","value":4},"id":231,"last_updated":"2024-01-11T12:58:47.529461Z","nat_inside":null,"nat_outside":[],"role":null,"status":{"label":"Active","value":"active"},"tags":[],"tenant":null,"url":"https://demo.netbox.dev/api/ipam/ip-addresses/231/","vrf":null},{"address":"10.31.62.18/24","assigned_object":null,"assigned_object_id":null,"assigned_object_type":null,"comments":"","created":"2024-01-11T12:58:46.951659Z","custom_fields":{},"description":"","display":"10.31.62.18/24","dns_name":"","family":{"label":"IPv4","value":4},"id":221,"last_updated":"2024-01-11T12:58:46.951720Z","nat_inside":null,"nat_outside":[],"role":null,"status":{"label":"Active","value":"active"},"tags":[],"tenant":null,"url":"https://demo.netbox.dev/api/ipam/ip-addresses/221/","vrf":null},{"address":"10.31.68.44/24","assigned_object":null,"assigned_object_id":null,"assigned_object_type":null,"comments":"","created":"2024-01-11T12:58:48.126682Z","custom_fields":{},"description":"","display":"10.31.68.44/24","dns_name":"","family":{"label":"IPv4","value":4},"id":241,"last_updated":"2024-01-11T12:58:48.126721Z","nat_inside":null,"nat_outside":[],"role":null,"status":{"label":"Active","value":"active"},"tags":[],"tenant":null,"url":"https://demo.netbox.dev/api/ipam/ip-addresses/241/","vrf":null},{"address":"10.31.73.54/24","assigned_object":null,"assigned_object_id":null,"assigned_object_type":null,"comments":"","created":"2024-01-11T12:58:48.650156Z","custom_fields":{},"description":"","display":"10.31.73.54/24","dns_name":"","family":{"label":"IPv4","value":4},"id":251,"last_updated":"2024-01-11T12:58:48.650190Z","nat_inside":null,"nat_outside":[],"role":null,"status":{"label":"Active","value":"active"},"tags":[],"tenant":null,"url":"https://demo.netbox.dev/api/ipam/ip-addresses/251/","vrf":null},{"address":"10.31.83.47/24","assigned_object":null,"assigned_object_id":null,"assigned_object_type":null,"comments":"","created":"2024-01-11T12:58:46.625972Z","custom_fields":{},"description":"","display":"10.31.83.47/24","dns_name":"","family":{"label":"IPv4","value":4},"id":215,"last_updated":"2024-01-11T12:58:46.626008Z","nat_inside":null,"nat_outside":[],"role":null,"status":{"label":"Active","value":"active"},"tags":[],"tenant":null,"url":"https://demo.netbox.dev/api/ipam/ip-addresses/215/","vrf":null},{"address":"10.31.94.103/24","assigned_object":null,"assigned_object_id":null,"assigned_object_type":null,"comments":"","created":"2024-01-11T12:58:46.235191Z","custom_fields":{},"description":"","display":"10.31.94.103/24","dns_name":"","family":{"label":"IPv4","value":4},"id":208,"last_updated":"2024-01-11T12:58:46.235228Z","nat_inside":null,"nat_outside":[],"role":null,"status":{"label":"Reserved","value":"reserved"},"tags":[],"tenant":null,"url":"https://demo.netbox.dev/api/ipam/ip-addresses/208/","vrf":null},{"address":"10.32.53.49/24","assigned_object":null,"assigned_object_id":null,"assigned_object_type":null,"comments":"","created":"2024-01-11T12:58:48.388946Z","custom_fields":{},"description":"","display":"10.32.53.49/24","dns_name":"","family":{"label":"IPv4","value":4},"id":246,"last_updated":"2024-01-11T12:58:48.388985Z","nat_inside":null,"nat_outside":[],"role":null,"status":{"label":"Reserved","value":"reserved"},"tags":[],"tenant":null,"url":"https://demo.netbox.dev/api/ipam/ip-addresses/246/","vrf":null},{"address":"10.32.56.59/24","assigned_object":null,"assigned_object_id":null,"assigned_object_type":null,"comments":"","created":"2024-01-11T12:58:48.909300Z","custom_fields":{},"description":"","display":"10.32.56.59/24","dns_name":"","family":{"label":"IPv4","value":4},"id":256,"last_updated":"2024-01-11T12:58:48.909344Z","nat_inside":null,"nat_outside":[],"role":null,"status":{"label":"Reserved","value":"reserved"},"tags":[],"tenant":null,"url":"https://demo.netbox.dev/api/ipam/ip-addresses/256/","vrf":null},{"address":"10.32.57.91/24","assigned_object":null,"assigned_object_id":null,"assigned_object_type":null,"comments":"","created":"2024-01-11T12:58:47.238080Z","custom_fields":{},"description":"","display":"10.32.57.91/24","dns_name":"","family":{"label":"IPv4","value":4},"id":226,"last_updated":"2024-01-11T12:58:47.238134Z","nat_inside":null,"nat_outside":[],"role":null,"status":{"label":"Reserved","value":"reserved"},"tags":[],"tenant":null,"url":"https://demo.netbox.dev/api/ipam/ip-addresses/226/","vrf":null},{"address":"10.32.58.145/24","assigned_object":null,"assigned_object_id":null,"assigned_object_type":null,"comments":"","created":"2024-01-11T12:58:45.919883Z","custom_fields":{},"description":"","display":"10.32.58.145/24","dns_name":"","family":{"label":"IPv4","value":4},"id":203,"last_updated":"2024-01-11T12:58:45.919972Z","nat_inside":null,"nat_outside":[],"role":null,"status":{"label":"Active","value":"active"},"tags":[],"tenant":null,"url":"https://demo.netbox.dev/api/ipam/ip-addresses/203/","vrf":null},{"address":"10.32.60.39/24","assigned_object":null,"assigned_object_id":null,"assigned_object_type":null,"comments":"","created":"2024-01-11T12:58:47.849223Z","custom_fields":{},"description":"","display":"10.32.60.39/24","dns_name":"","family":{"label":"IPv4","value":4},"id":236,"last_updated":"2024-01-11T12:58:47.849289Z","nat_inside":null,"nat_outside":[],"role":null,"status":{"label":"Reserved","value":"reserved"},"tags":[],"tenant":null,"url":"https://demo.netbox.dev/api/ipam/ip-addresses/236/","vrf":null},{"address":"10.33.14.53/24","assigned_object":null,"assigned_object_id":null,"assigned_object_type":null,"comments":"","created":"2024-01-11T12:58:48.606525Z","custom_fields":{},"description":"","display":"10.33.14.53/24","dns_name":"","family":{"label":"IPv4","value":4},"id":250,"last_updated":"2024-01-11T12:58:48.606573Z","nat_inside":null,"nat_outside":[],"role":null,"status":{"label":"Reserved","value":"reserved"},"tags":[],"tenant":null,"url":"https://demo.netbox.dev/api/ipam/ip-addresses/250/","vrf":null},{"address":"10.33.18.29/24","assigned_object":null,"assigned_object_id":null,"assigned_object_type":null,"comments":"","created":"2024-01-11T12:58:45.723484Z","custom_fields":{},"description":"","display":"10.33.18.29/24","dns_name":"","family":{"label":"IPv4","value":4},"id":200,"last_updated":"2024-01-11T12:58:45.723540Z","nat_inside":null,"nat_outside":[],"role":null,"status":{"label":"Reserved","value":"reserved"},"tags":[],"tenant":null,"url":"https://demo.netbox.dev/api/ipam/ip-addresses/200/","vrf":null},{"address":"10.33.25.67/24","assigned_object":null,"assigned_object_id":null,"assigned_object_type":null,"comments":"","created":"2024-01-11T12:58:46.904276Z","custom_fields":{},"description":"","display":"10.33.25.67/24","dns_name":"","family":{"label":"IPv4","value":4},"id":220,"last_updated":"2024-01-11T12:58:46.904332Z","nat_inside":null,"nat_outside":[],"role":null,"status":{"label":"Reserved","value":"reserved"},"tags":[],"tenant":null,"url":"https://demo.netbox.dev/api/ipam/ip-addresses/220/","vrf":null},{"address":"10.33.35.43/24","assigned_object":null,"assigned_object_id":null,"assigned_object_type":null,"comments":"","created":"2024-01-11T12:58:48.078824Z","custom_fields":{},"description":"","display":"10.33.35.43/24","dns_name":"","family":{"label":"IPv4","value":4},"id":240,"last_updated":"2024-01-11T12:58:48.078884Z","nat_inside":null,"nat_outside":[],"role":null,"status":{"label":"Reserved","value":"reserved"},"tags":[],"tenant":null,"url":"https://demo.netbox.dev/api/ipam/ip-addresses/240/","vrf":null},{"address":"10.33.46.52/24","assigned_object":null,"assigned_object_id":null,"assigned_object_type":null,"comments":"","created":"2024-01-11T12:58:47.470395Z","custom_fields":{},"description":"","display":"10.33.46.52/24","dns_name":"","family":{"label":"IPv4","value":4},"id":230,"last_updated":"2024-01-11T12:58:47.470432Z","nat_inside":null,"nat_outside":[],"role":null,"status":{"label":"Reserved","value":"reserved"},"tags":[],"tenant":null,"url":"https://demo.netbox.dev/api/ipam/ip-addresses/230/","vrf":null},{"address":"10.33.59.33/24","assigned_object":null,"assigned_object_id":null,"assigned_object_type":null,"comments":"","created":"2024-01-11T12:58:46.569912Z","custom_fields":{},"description":"","display":"10.33.59.33/24","dns_name":"","family":{"label":"IPv4","value":4},"id":214,"last_updated":"2024-01-11T12:58:46.569961Z","nat_inside":null,"nat_outside":[],"role":null,"status":{"label":"Reserved","value":"reserved"},"tags":[],"tenant":null,"url":"https://demo.netbox.dev/api/ipam/ip-addresses/214/","vrf":null},{"address":"10.33.78.22/24","assigned_object":null,"assigned_object_id":null,"assigned_object_type":null,"comments":"","created":"2024-01-11T12:58:46.175599Z","custom_fields":{},"description":"","display":"10.33.78.22/24","dns_name":"","family":{"label":"IPv4","value":4},"id":207,"last_updated":"2024-01-11T12:58:46.175648Z","nat_inside":null,"nat_outside":[],"role":null,"status":{"label":"Active","value":"active"},"tags":[],"tenant":null,"url":"https://demo.netbox.dev/api/ipam/ip-addresses/207/","vrf":null},{"address":"10.34.22.89/24","assigned_object":null,"assigned_object_id":null,"assigned_object_type":null,"comments":"","created":"2024-01-11T12:58:45.791517Z","custom_fields":{},"description":"","display":"10.34.22.89/24","dns_name":"","family":{"label":"IPv4","value":4},"id":201,"last_updated":"2024-01-11T12:58:45.791594Z","nat_inside":null,"nat_outside":[],"role":null,"status":{"label":"Active","value":"active"},"tags":[],"tenant":null,"url":"https://demo.netbox.dev/api/ipam/ip-addresses/201/","vrf":null},{"address":"10.34.24.48/24","assigned_object":null,"assigned_object_id":null,"assigned_object_type":null,"comments":"","created":"2024-01-11T12:58:48.339330Z","custom_fields":{},"description":"","display":"10.34.24.48/24","dns_name":"","family":{"label":"IPv4","value":4},"id":245,"last_updated":"2024-01-11T12:58:48.339376Z","nat_inside":null,"nat_outside":[],"role":null,"status":{"label":"Active","value":"active"},"tags":[],"tenant":null,"url":"https://demo.netbox.dev/api/ipam/ip-addresses/245/","vrf":null},{"address":"10.34.66.78/24","assigned_object":null,"assigned_object_id":null,"assigned_object_type":null,"comments":"","created":"2024-01-11T12:58:47.178449Z","custom_fields":{},"description":"","display":"10.34.66.78/24","dns_name":"","family":{"label":"IPv4","value":4},"id":225,"last_updated":"2024-01-11T12:58:47.178494Z","nat_inside":null,"nat_outside":[],"role":null,"status":{"label":"Active","value":"active"},"tags":[],"tenant":null,"url":"https://demo.netbox.dev/api/ipam/ip-addresses/225/","vrf":null},{"address":"10.34.69.58/24","assigned_object":null,"assigned_object_id":null,"assigned_object_type":null,"comments":"","created":"2024-01-11T12:58:48.852397Z","custom_fields":{},"description":"","display":"10.34.69.58/24","dns_name":"","family":{"label":"IPv4","value":4},"id":255,"last_updated":"2024-01-11T12:58:48.852441Z","nat_inside":null,"nat_outside":[],"role":null,"status":{"label":"Active","value":"active"},"tags":[],"tenant":null,"url":"https://demo.netbox.dev/api/ipam/ip-addresses/255/","vrf":null},{"address":"10.34.75.58/24","assigned_object":null,"assigned_object_id":null,"assigned_object_type":null,"comments":"","created":"2024-01-11T12:58:46.455848Z","custom_fields":{},"description":"","display":"10.34.75.58/24","dns_name":"","family":{"label":"IPv4","value":4},"id":212,"last_updated":"2024-01-11T12:58:46.455890Z","nat_inside":null,"nat_outside":[],"role":null,"status":{"label":"Reserved","value":"reserved"},"tags":[],"tenant":null,"url":"https://demo.netbox.dev/api/ipam/ip-addresses/212/","vrf":null},{"address":"10.34.79.28/24","assigned_object":null,"assigned_object_id":null,"assigned_object_type":null,"comments":"","created":"2024-01-11T12:58:47.788702Z","custom_fields":{},"description":"","display":"10.34.79.28/24","dns_name":"","family":{"label":"IPv4","value":4},"id":235,"last_updated":"2024-01-11T12:58:47.788758Z","nat_inside":null,"nat_outside":[],"role":null,"status":{"label":"Active","value":"active"},"tags":[],"tenant":null,"url":"https://demo.netbox.dev/api/ipam/ip-addresses/235/","vrf":null},{"address":"10.35.12.47/24","assigned_object":null,"assigned_object_id":null,"assigned_object_type":null,"comments":"","created":"2024-01-11T12:58:46.109512Z","custom_fields":{},"description":"","display":"10.35.12.47/24","dns_name":"","family":{"label":"IPv4","value":4},"id":206,"last_updated":"2024-01-11T12:58:46.109558Z","nat_inside":null,"nat_outside":[],"role":null,"status":{"label":"Reserved","value":"reserved"},"tags":[],"tenant":null,"url":"https://demo.netbox.dev/api/ipam/ip-addresses/206/","vrf":null},{"address":"10.35.23.109/24","assigned_object":null,"assigned_object_id":null,"assigned_object_type":null,"comments":"","created":"2024-01-11T12:58:47.419117Z","custom_fields":{},"description":"","display":"10.35.23.109/24","dns_name":"","family":{"label":"IPv4","value":4},"id":229,"last_updated":"2024-01-11T12:58:47.419165Z","nat_inside":null,"nat_outside":[],"role":null,"status":{"label":"Active","value":"active"},"tags":[],"tenant":null,"url":"https://demo.netbox.dev/api/ipam/ip-addresses/229/","vrf":null},{"address":"10.35.48.42/24","assigned_object":null,"assigned_object_id":null,"assigned_object_type":null,"comments":"","created":"2024-01-11T12:58:48.025431Z","custom_fields":{},"description":"","display":"10.35.48.42/24","dns_name":"","family":{"label":"IPv4","value":4},"id":239,"last_updated":"2024-01-11T12:58:48.025476Z","nat_inside":null,"nat_outside":[],"role":null,"status":{"label":"Active","value":"active"},"tags":[],"tenant":null,"url":"https://demo.netbox.dev/api/ipam/ip-addresses/239/","vrf":null}]}